Education background obtained by an individual predicts how interested he is in the 2019 federal election. - A Hugo website
…
Introduction

The 2019 federal election in Canada draws the the eyes of people around the world.While people do not usually have similar attitudes towards the election because they have different experiences.In this report,we study the dataset named CES2019_WEB,which was extracted from 2019 Canadian Election Study.In this case,we can get to know how the characteristics associated with the participants influence their views toward election.My findings may give suggestions to people who work on election advertisement.

This report is mainly surrounding two variables.Firstly,The variable,CPS19_INTEREST_ELXN_1,is a discrete numerical variable and records the how interested the participants are in the 2019 federal election.Secondly,CES19_EDUCATION, is an ordinal categorical variable and it records the education level of each participant.By connecting these two variables,I can learn how the education level completed by an individual affects his interest level towards the election.To be more specific,we find that the higher education level one has completed,the greater interest he may show towards the election.

The first part of my report is Data section.At the beginning,it remarks the source and description of my dataset.Then,it talks about the basic information and summary statistics of my interesting variables.The Graph sector includes two graphs based on the chosen variables.Then,the Discussion sector describes my findings from the graphs,features of variables and the implications of the study.Furthermore,the weaknesses associated with my data and the ideas to solve overcome them are specified in the sectors “Weaknesses” and “Next steps”,respectively.Finally,the references of the dataset are concluded in the sector of “References”.Our weaknesses involve excess outliers and data insufficiency.Such issues may cause our final conclusion to be inaccurate.To tackle them,I would try to filter out unusual observations and find out more related and useful data.

Data

The dataset used in this paper is called CES2019-WEB.It is extracted from the 2019 Election Study located within the website (http://www.ces-eec.ca").

This dataset records participants’ responses to a non-probability survey conducted for 2019 federal election.To be more detailed,the data within the set demonstrates the participants’ personal information(gender,citizenship and education level,etc.),and their attitudes toward the election-related issues(parties of popular competitors and the new political policies regarding the election)

## # A tibble: 37,822 x 620
##    cps19_StartDate     cps19_EndDate       cps19_ResponseId cps19_consent
##    <dttm>              <dttm>              <chr>            <fct>        
##  1 2019-09-13 08:09:44 2019-09-13 08:36:19 R_1OpYXEFGzHRUp… I consent to…
##  2 2019-09-13 08:39:09 2019-09-13 08:57:06 R_2qdrL3J618rxY… I consent to…
##  3 2019-09-13 10:01:19 2019-09-13 10:27:29 R_USWDAPcQEQiMm… I consent to…
##  4 2019-09-13 10:05:37 2019-09-13 10:50:53 R_3IQaeDXy0tBzE… I consent to…
##  5 2019-09-13 10:05:52 2019-09-13 10:32:53 R_27WeMQ1asip2c… I consent to…
##  6 2019-09-13 10:10:20 2019-09-13 10:29:45 R_3LiGZcCWJEcWV… I consent to…
##  7 2019-09-13 10:14:47 2019-09-13 10:32:32 R_1Iu8R1UlYzVMy… I consent to…
##  8 2019-09-13 10:15:39 2019-09-13 10:30:59 R_2EcS26hqrcVYl… I consent to…
##  9 2019-09-13 10:15:48 2019-09-13 10:37:45 R_3yrt44wqQ1d4V… I consent to…
## 10 2019-09-13 10:16:08 2019-09-13 10:40:14 R_10OBmXJyvn8fe… I consent to…
## # … with 37,812 more rows, and 616 more variables: cps19_citizenship <fct>,
## #   cps19_yob <fct>, cps19_yob_2001_age <fct>, cps19_gender <fct>,
## #   cps19_province <fct>, cps19_education <fct>, cps19_demsat <fct>,
## #   cps19_imp_iss <chr>, cps19_imp_iss_party <fct>,
## #   cps19_imp_iss_party_7_TEXT <chr>, cps19_imp_loc_iss <chr>,
## #   cps19_imp_loc_iss_p <fct>, cps19_imp_loc_iss_p_7_TEXT <chr>,
## #   cps19_interest_gen_1 <dbl>, cps19_interest_elxn_1 <dbl>,
## #   cps19_v_likely <fct>, cps19_v_likely_pr <fct>, cps19_votechoice <fct>,
## #   cps19_votechoice_7_TEXT <chr>, cps19_votechoice_pr <fct>,
…
