…
This dataset records participants’ responses to a non-probability survey conducted for 2019 federal election.To be more detailed,the data within the set demonstrates the participants’ personal information(gender,citizenship and education level,etc.),and their attitudes toward the election-related issues(parties of popular competitors and the new political policies regarding the election)

## Installing package into '/home/rstudio-user/R/x86_64-pc-linux-gnu-library/4.0'
## (as 'lib' is unspecified)
## Skipping install of 'cesR' from a github remote, the SHA1 (7c780beb) has not changed since last install.
##   Use `force = TRUE` to force installation
## TO CITE THIS SURVEY FILE:
## 
## - Stephenson, Laura B; Harell, Allison; Rubenson, Daniel; Loewen, Peter John, 2020, '2019 Canadian Election Study - Online Survey', https://doi.org/10.7910/DVN/DUS88V, Harvard Dataverse, V1
## 
## - Stephenson, Laura, Allison Harrel, Daniel Rubenson and Peter Loewen. Forthcoming. 'Measuring Preferences and Behaviour in the 2019 Canadian Election Study,' Canadian Journal of Political Science.
## 
## LINK: https://dataverse.harvard.edu/dataset.xhtml?persistentId=doi:10.7910/DVN/DUS88V
## # A tibble: 37,822 x 620
##    cps19_StartDate     cps19_EndDate       cps19_ResponseId cps19_consent
##    <dttm>              <dttm>              <chr>            <fct>        
##  1 2019-09-13 08:09:44 2019-09-13 08:36:19 R_1OpYXEFGzHRUp… I consent to…
##  2 2019-09-13 08:39:09 2019-09-13 08:57:06 R_2qdrL3J618rxY… I consent to…
##  3 2019-09-13 10:01:19 2019-09-13 10:27:29 R_USWDAPcQEQiMm… I consent to…
##  4 2019-09-13 10:05:37 2019-09-13 10:50:53 R_3IQaeDXy0tBzE… I consent to…
##  5 2019-09-13 10:05:52 2019-09-13 10:32:53 R_27WeMQ1asip2c… I consent to…
##  6 2019-09-13 10:10:20 2019-09-13 10:29:45 R_3LiGZcCWJEcWV… I consent to…
##  7 2019-09-13 10:14:47 2019-09-13 10:32:32 R_1Iu8R1UlYzVMy… I consent to…
##  8 2019-09-13 10:15:39 2019-09-13 10:30:59 R_2EcS26hqrcVYl… I consent to…
##  9 2019-09-13 10:15:48 2019-09-13 10:37:45 R_3yrt44wqQ1d4V… I consent to…
## 10 2019-09-13 10:16:08 2019-09-13 10:40:14 R_10OBmXJyvn8fe… I consent to…
## # … with 37,812 more rows, and 616 more variables: cps19_citizenship <fct>,
## #   cps19_yob <fct>, cps19_yob_2001_age <fct>, cps19_gender <fct>,
## #   cps19_province <fct>, cps19_education <fct>, cps19_demsat <fct>,
## #   cps19_imp_iss <chr>, cps19_imp_iss_party <fct>,
## #   cps19_imp_iss_party_7_TEXT <chr>, cps19_imp_loc_iss <chr>,
## #   cps19_imp_loc_iss_p <fct>, cps19_imp_loc_iss_p_7_TEXT <chr>,
## #   cps19_interest_gen_1 <dbl>, cps19_interest_elxn_1 <dbl>,
## #   cps19_v_likely <fct>, cps19_v_likely_pr <fct>, cps19_votechoice <fct>,
## #   cps19_votechoice_7_TEXT <chr>, cps19_votechoice_pr <fct>,
…
